{
  "success": true,
  "data": {
    "per_page": 5,
    "current_page": 1,
    "last_page": 80,
    "from": 1,
    "to": 5,
    "total": 400,
    "data": [
      {
        "id": 14170,
        "business_tran_id": 14136,
        "trans_type_id": 7,
        "trans_date": "2024-03-04",
        "due_date": "2024-03-04",
        "contact_id": 420,
        "status_id": 7,
        "ref_number": "DO/00/MAR/00000",
        "amount": 9000000,
        "amount_after_tax": 10000000,
        "due": 0,
        "bank_statement_id": null,
        "bank_account_id": null,
        "balance": null,
        "position": null,
        "pay_later": false,
        "pay_from_finance_account_id": null,
        "payment_id": null,
        "include_tax": false,
        "term_id": 2,
        "attachment": [],
        "memo": "PT Company 2",
        "desc": "",
        "tax": "{\"1\":943800}",
        "warehouse_id": 1,
        "discount_percent": 0,
        "discount_amount": 0,
        "additional_discount_percent": 0,
        "additional_discount_amount": 0,
        "total_tax": 900000,
        "subtotal": 9000000,
        "shipping_cost": 0,
        "shipping_date": "2024-03-04",
        "shipping_comp_id": null,
        "shipping_tracking": null,
        "sub_business_tran_id": 14293,
        "delivery_ids": null,
        "witholding_percent": 0,
        "witholding_amount": 0,
        "witholding_account_id": null,
        "owner_id": 352181,
        "sales_id": 352181,
        "currency_id": 0,
        "currency_source_id": 0,
        "currency_rate": 1,
        "payment_date": null,
        "paid_date": null,
        "contact_shipping_address_id": null,
        "amount_after_tax_ori": null,
        "amount_ori": null,
        "local_id": null,
        "outlet_id": null,
        "invoice_type_id": null,
        "payment_type_id": null,
        "pos_shift_id": null,
        "related_id": null,
        "related_type": null,
        "is_stamped": false,
        "stamp_serial_number": null,
        "source": 0,
        "source_id": null,
        "created_at": "2024-03-04",
        "updated_at": "2024-03-04",
        "contact": {
          "id": 420,
          "name": "Name 125",
          "company": "PT. HAN JIN KONSTRUKSI INDONESIA",
          "opening_hour": null,
          "closing_hour": null
        },
        "termin": {
          "id": 2,
          "name": "Name 126"
        },
        "related": null,
        "warehouse": {
          "id": 1,
          "name": "Name 127"
        },
        "attachment_exists": false,
        "tags": [
          {
            "id": 1,
            "name": "Name 128",
            "color": "#000000"
          }
        ],
        "print_status": "Sudah",
        "qty": 12,
        "latitude": null,
        "longitude": null,
        "total_volume": 0,
        "total_weight": 0
      },
      {
        "id": 14301,
        "business_tran_id": 13942,
        "trans_type_id": 7,
        "trans_date": "2024-02-27",
        "due_date": "2024-02-27",
        "contact_id": 420,
        "status_id": 7,
        "ref_number": "DO/00/FEB/00000",
        "amount": 60000,
        "amount_after_tax": 60000,
        "due": 0,
        "bank_statement_id": null,
        "bank_account_id": null,
        "balance": null,
        "position": null,
        "pay_later": false,
        "pay_from_finance_account_id": null,
        "payment_id": null,
        "include_tax": false,
        "term_id": 2,
        "attachment": [],
        "memo": "ASIAN TILE - CB1",
        "desc": "",
        "tax": "{\"1\":6435}",
        "warehouse_id": 1,
        "discount_percent": 0,
        "discount_amount": 0,
        "additional_discount_percent": 0,
        "additional_discount_amount": 0,
        "total_tax": 6000,
        "subtotal": 60000,
        "shipping_cost": 0,
        "shipping_date": "2024-02-27",
        "shipping_comp_id": null,
        "shipping_tracking": null,
        "sub_business_tran_id": 14306,
        "delivery_ids": null,
        "witholding_percent": 0,
        "witholding_amount": 0,
        "witholding_account_id": null,
        "owner_id": 218933,
        "sales_id": 352181,
        "currency_id": 0,
        "currency_source_id": 0,
        "currency_rate": 1,
        "payment_date": null,
        "paid_date": null,
        "contact_shipping_address_id": null,
        "amount_after_tax_ori": null,
        "amount_ori": null,
        "local_id": null,
        "outlet_id": null,
        "invoice_type_id": null,
        "payment_type_id": null,
        "pos_shift_id": null,
        "related_id": null,
        "related_type": null,
        "is_stamped": false,
        "stamp_serial_number": null,
        "source": 0,
        "source_id": null,
        "created_at": "2024-03-10",
        "updated_at": "2024-03-10",
        "contact": {
          "id": 420,
          "name": "Name 129",
          "company": "PT. HAN JIN KONSTRUKSI INDONESIA",
          "opening_hour": null,
          "closing_hour": null
        },
        "termin": {
          "id": 2,
          "name": "Name 130"
        },
        "related": null,
        "warehouse": {
          "id": 1,
          "name": "Name 131"
        },
        "attachment_exists": false,
        "tags": [
          {
            "id": 64,
            "name": "Name 132",
            "color": null
          }
        ],
        "print_status": "Sudah",
        "qty": 1,
        "latitude": null,
        "longitude": null,
        "total_volume": 0,
        "total_weight": 0
      },
      {
        "id": 14303,
        "business_tran_id": 14109,
        "trans_type_id": 7,
        "trans_date": "2024-02-26",
        "due_date": "2024-02-26",
        "contact_id": 411,
        "status_id": 7,
        "ref_number": "DO/00/FEB/00000",
        "amount": 1000000,
        "amount_after_tax": 1000000,
        "due": 0,
        "bank_statement_id": null,
        "bank_account_id": null,
        "balance": null,
        "position": null,
        "pay_later": false,
        "pay_from_finance_account_id": null,
        "payment_id": null,
        "include_tax": false,
        "term_id": 5,
        "attachment": [],
        "memo": "RSUD Tarakan - 16 - A4C",
        "desc": "",
        "tax": "{\"1\":138600}",
        "warehouse_id": 1,
        "discount_percent": 0,
        "discount_amount": 0,
        "additional_discount_percent": 0,
        "additional_discount_amount": 0,
        "total_tax": 100000,
        "subtotal": 1000000,
        "shipping_cost": 0,
        "shipping_date": "2024-02-26",
        "shipping_comp_id": null,
        "shipping_tracking": null,
        "sub_business_tran_id": 14304,
        "delivery_ids": null,
        "witholding_percent": 0,
        "witholding_amount": 0,
        "witholding_account_id": null,
        "owner_id": 218933,
        "sales_id": 218933,
        "currency_id": 0,
        "currency_source_id": 0,
        "currency_rate": 1,
        "payment_date": null,
        "paid_date": null,
        "contact_shipping_address_id": null,
        "amount_after_tax_ori": null,
        "amount_ori": null,
        "local_id": null,
        "outlet_id": null,
        "invoice_type_id": null,
        "payment_type_id": null,
        "pos_shift_id": null,
        "related_id": null,
        "related_type": null,
        "is_stamped": false,
        "stamp_serial_number": null,
        "source": 0,
        "source_id": null,
        "created_at": "2024-03-10",
        "updated_at": "2024-03-10",
        "contact": {
          "id": 411,
          "name": "Name 133",
          "company": "PT. PERMATA DWILESTARI",
          "opening_hour": null,
          "closing_hour": null
        },
        "termin": {
          "id": 5,
          "name": "Name 134"
        },
        "related": null,
        "warehouse": {
          "id": 1,
          "name": "Name 135"
        },
        "attachment_exists": false,
        "tags": [
          {
            "id": 1,
            "name": "Name 136",
            "color": "#000000"
          }
        ],
        "print_status": "Sudah",
        "qty": 2,
        "latitude": null,
        "longitude": null,
        "total_volume": 0,
        "total_weight": 0
      },
      {
        "id": 14132,
        "business_tran_id": 13912,
        "trans_type_id": 7,
        "trans_date": "2024-02-25",
        "due_date": "2024-03-11",
        "contact_id": 484,
        "status_id": 7,
        "ref_number": "DO/00/FEB/00000",
        "amount": 9000000,
        "amount_after_tax": 10000000,
        "due": 0,
        "bank_statement_id": null,
        "bank_account_id": null,
        "balance": null,
        "position": null,
        "pay_later": false,
        "pay_from_finance_account_id": null,
        "payment_id": null,
        "include_tax": false,
        "term_id": 7,
        "attachment": [],
        "memo": "Keramik Unpam - 2 - C6B",
        "desc": "",
        "tax": "{\"1\":1020800}",
        "warehouse_id": 1,
        "discount_percent": 0,
        "discount_amount": 0,
        "additional_discount_percent": 0,
        "additional_discount_amount": 0,
        "total_tax": 1000000,
        "subtotal": 9000000,
        "shipping_cost": 0,
        "shipping_date": "2024-02-25",
        "shipping_comp_id": null,
        "shipping_tracking": null,
        "sub_business_tran_id": 14133,
        "delivery_ids": null,
        "witholding_percent": 0,
        "witholding_amount": 0,
        "witholding_account_id": null,
        "owner_id": 218933,
        "sales_id": 352181,
        "currency_id": 0,
        "currency_source_id": 0,
        "currency_rate": 1,
        "payment_date": null,
        "paid_date": null,
        "contact_shipping_address_id": null,
        "amount_after_tax_ori": null,
        "amount_ori": null,
        "local_id": null,
        "outlet_id": null,
        "invoice_type_id": null,
        "payment_type_id": null,
        "pos_shift_id": null,
        "related_id": null,
        "related_type": null,
        "is_stamped": false,
        "stamp_serial_number": null,
        "source": 0,
        "source_id": null,
        "created_at": "2024-02-27",
        "updated_at": "2024-02-27",
        "contact": {
          "id": 484,
          "name": "Name 137",
          "company": "RAMA PROJECT UTAMA",
          "opening_hour": null,
          "closing_hour": null
        },
        "termin": {
          "id": 7,
          "name": "Name 138"
        },
        "related": null,
        "warehouse": {
          "id": 1,
          "name": "Name 139"
        },
        "attachment_exists": false,
        "tags": [
          {
            "id": 64,
            "name": "Name 140",
            "color": null
          }
        ],
        "print_status": "Sudah",
        "qty": 64,
        "latitude": null,
        "longitude": null,
        "total_volume": 0,
        "total_weight": 0
      },
      {
        "id": 14288,
        "business_tran_id": 13974,
        "trans_type_id": 7,
        "trans_date": "2024-02-24",
        "due_date": "2024-02-24",
        "contact_id": 489,
        "status_id": 7,
        "ref_number": "DO/00/FEB/00000",
        "amount": 20000000,
        "amount_after_tax": 20000000,
        "due": 0,
        "bank_statement_id": null,
        "bank_account_id": null,
        "balance": null,
        "position": null,
        "pay_later": false,
        "pay_from_finance_account_id": null,
        "payment_id": null,
        "include_tax": false,
        "term_id": 5,
        "attachment": [],
        "memo": "Stadion Wibawa Mukti Bekasi - 4 - 380",
        "desc": "",
        "tax": "{\"1\":1795200}",
        "warehouse_id": 1,
        "discount_percent": 0,
        "discount_amount": 0,
        "additional_discount_percent": 0,
        "additional_discount_amount": 0,
        "total_tax": 2000000,
        "subtotal": 20000000,
        "shipping_cost": 0,
        "shipping_date": "2024-02-24",
        "shipping_comp_id": null,
        "shipping_tracking": null,
        "sub_business_tran_id": 14289,
        "delivery_ids": null,
        "witholding_percent": 0,
        "witholding_amount": 0,
        "witholding_account_id": null,
        "owner_id": 218933,
        "sales_id": 230701,
        "currency_id": 0,
        "currency_source_id": 0,
        "currency_rate": 1,
        "payment_date": null,
        "paid_date": null,
        "contact_shipping_address_id": null,
        "amount_after_tax_ori": null,
        "amount_ori": null,
        "local_id": null,
        "outlet_id": null,
        "invoice_type_id": null,
        "payment_type_id": null,
        "pos_shift_id": null,
        "related_id": null,
        "related_type": null,
        "is_stamped": false,
        "stamp_serial_number": null,
        "source": 0,
        "source_id": null,
        "created_at": "2024-03-10",
        "updated_at": "2024-03-10",
        "contact": {
          "id": 489,
          "name": "Name 141",
          "company": "PT. RANGKA RUANG INDONESIA",
          "opening_hour": null,
          "closing_hour": null
        },
        "termin": {
          "id": 5,
          "name": "Name 142"
        },
        "related": null,
        "warehouse": {
          "id": 1,
          "name": "Name 143"
        },
        "attachment_exists": false,
        "tags": [
          {
            "id": 1,
            "name": "Name 144",
            "color": "#000000"
          }
        ],
        "print_status": "Sudah",
        "qty": 24,
        "latitude": null,
        "longitude": null,
        "total_volume": 0,
        "total_weight": 0
      }
    ],
    "grand_subtotal": {
      "qty": 100
    }
  },
  "message": "Pengiriman berhasil diambil",
  "time": 0
}